…
```r
iris_size <- iris_data %>%
  mutate(Sepal.Size =
          case_when(
            Sepal.Length < 5 ~ "small", 
            Sepal.Length >= 5 & Sepal.Length < 6.5 ~ "medium",
            Sepal.Length >= 6.5 ~ "large"))
iris_size
```

```
## # A tibble: 150 x 6
##    Sepal.Length Sepal.Width Petal.Length Petal.Width Species Sepal.Size
##           <dbl>       <dbl>        <dbl>       <dbl> <fct>   <chr>     
##  1          5.1         3.5          1.4         0.2 setosa  medium    
##  2          4.9         3            1.4         0.2 setosa  small     
##  3          4.7         3.2          1.3         0.2 setosa  small     
##  4          4.6         3.1          1.5         0.2 setosa  small     
##  5          5           3.6          1.4         0.2 setosa  medium    
##  6          5.4         3.9          1.7         0.4 setosa  medium    
##  7          4.6         3.4          1.4         0.3 setosa  small     
##  8          5           3.4          1.5         0.2 setosa  medium    
##  9          4.4         2.9          1.4         0.2 setosa  small     
## 10          4.9         3.1          1.5         0.1 setosa  small     
## # ... with 140 more rows
```
#### Rank Petal.Length

```r
iris_rank <- arrange(iris_data, desc(Petal.Length))
iris_rank
```

```
## # A tibble: 150 x 5
##    Sepal.Length Sepal.Width Petal.Length Petal.Width Species  
##           <dbl>       <dbl>        <dbl>       <dbl> <fct>    
##  1          7.7         2.6          6.9         2.3 virginica
##  2          7.7         3.8          6.7         2.2 virginica
##  3          7.7         2.8          6.7         2   virginica
##  4          7.6         3            6.6         2.1 virginica
##  5          7.9         3.8          6.4         2   virginica
##  6          7.3         2.9          6.3         1.8 virginica
##  7          7.2         3.6          6.1         2.5 virginica
##  8          7.4         2.8          6.1         1.9 virginica
##  9          7.7         3            6.1         2.3 virginica
## 10          6.3         3.3          6           2.5 virginica
## # ... with 140 more rows
```
…
